{
  "name": "PurchaseGroup",
  "base": "PersistedModel",
  "idInjection": true,
  "options": {
    "validateUpsert": true
  },
  "properties": {
    "id": {
      "type": "string"
    },
    "create_at": {
      "type": "date",
      "default": "$now"
    },
    "update_at": {
      "type": "date"
    },
    "expire_date": {
      "type": "date"
    },
    "hidden": {
      "type": "boolean",
      "default": false
    }
  },
  "validations": [],
  "relations": {
    "member": {
      "type": "belongsTo",
      "model": "Member",
      "foreignKey": "memberId"
    },
    "group": {
      "type": "belongsTo",
      "model": "Group",
      "foreignKey": "groupId"
    }
  },
  "acls": [],
  "methods": {}
}
