{
  "name": "Theme",
  "base": "PersistedModel",
  "idInjection": true,
  "options": {
    "validateUpsert": true
  },
  "properties": {
    "name": {
      "type": "string"
    },
    "create_at": {
      "type": "date",
      "default": "$now"
    },
    "update_at": {
      "type": "date"
    },
    "hidden": {
      "type": "boolean",
      "default": false
    }
  },
  "validations": [],
  "relations": {
    "template": {
      "type": "hasMany",
      "model": "Template",
      "foreignKey": "themeId"
    },
    "previewImage": {
      "type": "hasMany",
      "model": "Image",
      "foreignKey": "themeId"
    }
  },
  "acls": [],
  "methods": {}
}
