{
  "db": {
    "name": "db",
    "connector": "memory"
  },
  "mongoDs": {
    "host": "127.0.0.1",
    "port": 27017,
    "database": "ving-api",
    "name": "mongoDs",
    "connector": "mongodb"
  },
  "mongoLog": {
    "host": "127.0.0.1",
    "port": 27017,
    "database": "ving-recorder",
    "name": "mongoLog",
    "connector": "mongodb"
  },

  "storage": {
    "name": "storage",
    "connector": "loopback-component-storage",
    "provider": "filesystem",
    "root": "/var/www/ving-api/images",
    "maxFileSize": "52428800"
  }
}
